{
  "role": "Обрабатывающий центр ТМС-450",
  "port": "3000",
  "serialport": {
    "name": "COM6",
    "baudRate": 9600
  },
  "database": {
    "path": "./database/sensor.db"
  },
  "params": {
    "shutdown": "2.00",
    "work": "5.00"
  }
}